Lab_9_Current_Mirror_Differential_Amplifier/lab9_small.csv

#Digilent WaveForms Oscilloscope Acquisition
#Device Name: Discovery2
#Serial Number: SN:210321A18988
#Date Time: 2019-04-24 18:03:01.085
#Trigger:Source: Channel 1Type: EdgeCondition: RisingLevel: -100 mVHyst.: AutoHoldOff: 0 s
#Channel 1: Range: 500 mV/div Offset: -1.8 V
#Channel 2: Range: 500 mV/div Offset: -1.72 V

Time (s),Channel 1 (V),Channel 2 (V)
-0.030252950000000001,2.0502734533374185,1.9400124958758282
-0.030245319999999999,2.0499415238930938,1.9410170901050983
-0.030237690000000001,2.0499415238930938,1.9426914138205484
-0.03023006,2.0499415238930938,1.9440308727929088
-0.030222430000000002,2.0499415238930938,1.9453703317652689
-0.0302148,2.0499415238930938,1.9463749259945389
-0.030207169999999998,2.0499415238930938,1.9477143849668992
-0.03019954,2.0499415238930938,1.9487189791961694
-0.030191909999999999,2.0502734533374185,1.9500584381685295
-0.030184280000000001,2.0499415238930938,1.9503933029116196
-0.030176649999999999,2.0499415238930938,1.9513978971408896
-0.030169020000000001,2.0499415238930938,1.9524024913701599
-0.03016139,2.0506053827817436,1.9530722208563398
-0.030153760000000002,2.0502734533374185,1.95374195034252
-0.03014613,2.0502734533374185,1.9544116798287001
-0.030138499999999999,2.0506053827817436,1.9554162740579701
-0.030130870000000001,2.0502734533374185,1.9557511388010602
-0.030123239999999999,2.0499415238930938,1.9560860035441503
-0.030115610000000001,2.0499415238930938,1.9567557330303305
-0.030107979999999999,2.0502734533374185,1.9567557330303305
-0.030100350000000001,2.0506053827817436,1.9574254625165104
-0.03009272,2.0506053827817436,1.9577603272596005
-0.030085090000000002,2.0502734533374185,1.9584300567457806
-0.03007746,2.0502734533374185,1.9587649214888707
-0.030069829999999999,2.0502734533374185,1.9587649214888707
-0.030062200000000001,2.0499415238930938,1.9594346509750507
-0.030054569999999999,2.0502734533374185,1.9597695157181407
-0.030046940000000001,2.0499415238930938,1.9594346509750507
-0.03003931,2.0499415238930938,1.9597695157181407
-0.030031680000000002,2.0496095944487687,1.9601043804612308
-0.03002405,2.0496095944487687,1.9604392452043209
-0.030016419999999999,2.0492776650044435,1.9604392452043209
-0.03000879,2.0499415238930938,1.960774109947411
-0.030001159999999999,2.0499415238930938,1.960774109947411
-0.029993530000000001,2.0499415238930938,1.960774109947411
-0.029985899999999999,2.0499415238930938,1.960774109947411
-0.029978270000000001,2.0499415238930938,1.9611089746905011
-0.02997064,2.0502734533374185,1.9614438394335911
-0.029963010000000002,2.0482818766714681,1.9614438394335911
-0.02995538,1.9500307611512375,1.9577603272596005
-0.029947749999999999,1.9500307611512375,1.947044655480719
-0.029940120000000001,1.9503626905955627,1.9369987131880178
-0.029932489999999999,1.9503626905955627,1.9286270946107666
-0.029924860000000001,1.9506946200398878,1.9215949350058756
-0.02991723,1.9506946200398878,1.9155673696302549
-0.029909600000000001,1.9503626905955627,1.9105443984839041
-0.02990197,1.9506946200398878,1.9061911568237335
-0.029894340000000002,1.9500307611512375,1.902172779906653
-0.02988671,1.9506946200398878,1.8991589972188427
-0.029879079999999999,1.9500307611512375,1.8961452145310322
-0.029871450000000001,1.9500307611512375,1.8934662965863118
-0.029863819999999999,1.9500307611512375,1.8914571081277716
-0.029856190000000001,1.9506946200398878,1.8894479196692313
-0.02984856,1.9506946200398878,1.8877735959537811
-0.029840930000000002,1.9503626905955627,1.886099272238331
-0.0298333,1.9503626905955627,1.8844249485228808
-0.029825669999999999,1.9500307611512375,1.8830854895505205
-0.029818040000000001,1.9503626905955627,1.8820808953212504
-0.029810409999999999,1.9503626905955627,1.8814111658350703
-0.029802780000000001,1.9503626905955627,1.8800717068627102
-0.029795149999999999,1.9503626905955627,1.87940197737653
-0.029787520000000001,1.9503626905955627,1.8787322478903499
-0.02977989,1.9503626905955627,1.8783973831472598
-0.029772260000000002,1.9503626905955627,1.8773927889179898
-0.02976463,1.9500307611512375,1.8770579241748997
-0.029756999999999999,1.9500307611512375,1.8763881946887195
-0.029749370000000001,1.9500307611512375,1.8760533299456297
-0.029741739999999999,1.9503626905955627,1.8753836004594495
-0.029734110000000001,1.9503626905955627,1.8750487357163594
-0.02972648,1.9503626905955627,1.8743790062301793
-0.029718850000000002,1.9506946200398878,1.8743790062301793
-0.02971122,1.9503626905955627,1.8740441414870892
-0.029703589999999998,1.9503626905955627,1.8740441414870892
-0.02969596,1.9500307611512375,1.8737092767439993
-0.029688329999999999,1.9500307611512375,1.8737092767439993
-0.029680700000000001,1.9500307611512375,1.8733744120009093
-0.029673069999999999,1.9500307611512375,1.8730395472578192
-0.029665440000000001,1.9500307611512375,1.8727046825147291
-0.02965781,1.9506946200398878,1.8727046825147291
-0.029650180000000002,1.9506946200398878,1.8727046825147291
-0.02964255,1.9500307611512375,1.872369817771639
-0.029634919999999999,1.9503626905955627,1.8727046825147291
-0.029627290000000001,1.9500307611512375,1.872369817771639
-0.029619659999999999,1.9503626905955627,1.872369817771639
-0.029612030000000001,1.9500307611512375,1.8720349530285492
-0.029604399999999999,1.9500307611512375,1.872369817771639
-0.029596770000000001,1.9500307611512375,1.8720349530285492
-0.02958914,1.9500307611512375,1.8720349530285492
-0.029581510000000002,1.9503626905955627,1.8717000882854591
-0.02957388,1.9500307611512375,1.8720349530285492
-0.029566249999999999,1.9503626905955627,1.8720349530285492
-0.029558620000000001,1.9503626905955627,1.8717000882854591
-0.029550989999999999,1.9503626905955627,1.8720349530285492
-0.029543360000000001,1.9503626905955627,1.8717000882854591
-0.02953573,1.9503626905955627,1.8720349530285492
-0.029528100000000002,1.9500307611512375,1.8720349530285492
-0.02952047,1.9506946200398878,1.8717000882854591
-0.029512839999999999,1.9503626905955627,1.8717000882854591
-0.02950521,1.9503626905955627,1.8717000882854591
-0.029497579999999999,1.9503626905955627,1.8717000882854591
-0.029489950000000001,1.9506946200398878,1.8720349530285492
-0.029482319999999999,1.9503626905955627,1.8717000882854591
-0.029474690000000001,1.9500307611512375,1.871365223542369
-0.02946706,1.9500307611512375,1.8717000882854591
-0.029459430000000002,1.9988243894670277,1.8720349530285492
-0.0294518,2.0499415238930938,1.8747138709732694
-0.029444169999999999,2.0499415238930938,1.8770579241748997
-0.029436540000000001,2.0499415238930938,1.8797368421196201
-0.029428909999999999,2.0506053827817436,1.8827506248074304
-0.029421280000000001,2.0499415238930938,1.886099272238331
-0.02941365,2.0502734533374185,1.8887781901830514
-0.029406020000000001,2.0502734533374185,1.8921268376139517
-0.02939839,2.0499415238930938,1.8951406203017622
-0.029390760000000002,2.0499415238930938,1.8981544029895725
-0.02938313,2.0496095944487687,1.901168185677383
-0.029375499999999999,2.0502734533374185,1.9038471036221032
-0.029367870000000001,2.0502734533374185,1.9065260215668236
-0.029360239999999999,2.0502734533374185,1.9095398042546341
-0.029352610000000001,2.0502734533374185,1.9122187221993545
-0.02934498,2.0509373122260688,1.9145627754009849
-0.029337350000000002,2.0502734533374185,1.9175765580887951
-0.02932972,2.0502734533374185,1.9199206112904255
-0.029322089999999999,2.0502734533374185,1.9219297997489657
-0.029314460000000001,2.0502734533374185,1.9246087176936861
-0.029306829999999999,2.0499415238930938,1.9266179061522264
-0.029299200000000001,2.0502734533374185,1.9289619593538567
-0.029291569999999999,2.0502734533374185,1.9313060125554871
-0.029283940000000001,2.0499415238930938,1.9329803362709372
-0.02927631,2.0502734533374185,1.9346546599863874
-0.029268680000000002,2.0502734533374185,1.9366638484449277
-0.02926105,2.0502734533374185,1.9383381721603778
-0.029253419999999999,2.0502734533374185,1.9400124958758282
-0.029245790000000001,2.0506053827817436,1.9413519548481883
-0.029238159999999999,2.0502734533374185,1.9430262785636385
-0.029230530000000001,2.0502734533374185,1.9440308727929088
-0.0292229,2.0499415238930938,1.9453703317652689
-0.029215270000000002,2.0502734533374185,1.946709790737629
-0.02920764,2.0499415238930938,1.9480492497099893
-0.029200009999999998,2.0499415238930938,1.9487189791961694
-0.02919238,2.0499415238930938,1.9497235734254394
-0.029184749999999999,2.0502734533374185,1.9507281676547095
-0.029177120000000001,2.0502734533374185,1.9513978971408896
-0.029169489999999999,2.0506053827817436,1.9524024913701599
-0.029161860000000001,2.0502734533374185,1.9534070855994299
-0.02915423,2.0502734533374185,1.95374195034252
-0.029146600000000002,2.0502734533374185,1.9544116798287001
-0.02913897,2.0502734533374185,1.9550814093148801
-0.029131339999999999,2.0499415238930938,1.9557511388010602
-0.029123710000000001,2.0499415238930938,1.9564208682872404
-0.029116079999999999,2.0499415238930938,1.9570905977734205
-0.029108450000000001,2.0502734533374185,1.9574254625165104
-0.029100819999999999,2.0506053827817436,1.9577603272596005
-0.029093190000000001,2.0499415238930938,1.9580951920026906
-0.02908556,2.0499415238930938,1.9584300567457806
-0.029077930000000002,2.0502734533374185,1.9587649214888707
-0.0290703,2.0506053827817436,1.9590997862319608
-0.029062669999999999,2.0502734533374185,1.9594346509750507
-0.029055040000000001,2.0506053827817436,1.9597695157181407
-0.029047409999999999,2.0502734533374185,1.9601043804612308
-0.029039780000000001,2.0502734533374185,1.9601043804612308
-0.02903215,2.0506053827817436,1.9601043804612308
-0.029024520000000002,2.0502734533374185,1.960774109947411
-0.02901689,2.0502734533374185,1.960774109947411
-0.029009259999999999,2.0502734533374185,1.960774109947411
-0.02900163,2.0506053827817436,1.960774109947411
-0.028993999999999999,2.0499415238930938,1.9614438394335911
-0.028986370000000001,2.0502734533374185,1.9611089746905011
-0.028978739999999999,2.0499415238930938,1.9611089746905011
-0.028971110000000001,2.0499415238930938,1.9614438394335911
-0.02896348,2.0506053827817436,1.961778704176681
-0.028955850000000002,1.9546777733717891,1.9584300567457806
-0.02894822,1.9503626905955627,1.9483841144530794
-0.028940589999999999,1.9506946200398878,1.9380033074172878
-0.028932960000000001,1.9500307611512375,1.9292968240969468
-0.028925329999999999,1.9503626905955627,1.9222646644920558
-0.028917700000000001,1.9506946200398878,1.9159022343733449
-0.02891007,1.9500307611512375,1.9108792632269942
-0.028902440000000001,1.9506946200398878,1.9065260215668236
-0.02889481,1.9500307611512375,1.9028425093928332
-0.028887180000000002,1.9503626905955627,1.8994938619619328
-0.02887955,1.9500307611512375,1.8964800792741223
-0.028871919999999999,1.9503626905955627,1.8938011613294019
-0.028864290000000001,1.9503626905955627,1.8917919728708616
-0.028856659999999999,1.9503626905955627,1.8897827844123214
-0.028849030000000001,1.9503626905955627,1.8877735959537811
-0.0288414,1.9503626905955627,1.886099272238331
-0.028833770000000002,1.9500307611512375,1.8847598132659709
-0.02882614,1.9503626905955627,1.8837552190367006
-0.028818509999999999,1.9500307611512375,1.8820808953212504
-0.028810880000000001,1.9500307611512375,1.8810763010919802
-0.028803249999999999,1.9500307611512375,1.8804065716058003
-0.028795620000000001,1.9500307611512375,1.8797368421196201
-0.028787989999999999,1.9500307611512375,1.87906711263344
-0.028780360000000001,1.9500307611512375,1.8783973831472598
-0.02877273,1.9500307611512375,1.8777276536610799
-0.028765100000000002,1.9500307611512375,1.8770579241748997
-0.02875747,1.9503626905955627,1.8763881946887195
-0.028749839999999999,1.9503626905955627,1.8760533299456297
-0.028742210000000001,1.9503626905955627,1.8753836004594495
-0.028734579999999999,1.9503626905955627,1.8753836004594495
-0.028726950000000001,1.9506946200398878,1.8753836004594495
-0.02871932,1.9506946200398878,1.8747138709732694
-0.028711690000000002,1.9503626905955627,1.8743790062301793
-0.02870406,1.9503626905955627,1.8740441414870892
-0.028696430000000002,1.9503626905955627,1.8737092767439993
-0.0286888,1.9500307611512375,1.8733744120009093
-0.028681169999999999,1.9500307611512375,1.8737092767439993
-0.028673540000000001,1.9506946200398878,1.8733744120009093
-0.028665909999999999,1.9500307611512375,1.8730395472578192
-0.028658280000000001,1.9503626905955627,1.8733744120009093
-0.02865065,1.9503626905955627,1.8727046825147291
-0.028643020000000002,1.9503626905955627,1.8727046825147291
-0.02863539,1.9506946200398878,1.8727046825147291
-0.028627759999999999,1.9510265494842129,1.8727046825147291
-0.028620130000000001,1.9506946200398878,1.8727046825147291
-0.028612499999999999,1.9503626905955627,1.872369817771639
-0.028604870000000001,1.9510265494842129,1.8727046825147291
-0.028597239999999999,1.9510265494842129,1.872369817771639
-0.028589610000000001,1.9506946200398878,1.872369817771639
-0.02858198,1.9503626905955627,1.872369817771639
-0.028574350000000002,1.9506946200398878,1.872369817771639
-0.02856672,1.9506946200398878,1.872369817771639
-0.028559089999999999,1.9500307611512375,1.872369817771639
-0.028551460000000001,1.9506946200398878,1.8720349530285492
-0.028543829999999999,1.9503626905955627,1.8720349530285492
-0.028536200000000001,1.9503626905955627,1.8720349530285492
-0.02852857,1.9500307611512375,1.8720349530285492
-0.028520940000000002,1.9503626905955627,1.8720349530285492
-0.02851331,1.9503626905955627,1.8720349530285492
-0.028505679999999999,1.9503626905955627,1.8720349530285492
-0.02849805,1.9500307611512375,1.8717000882854591
-0.028490419999999999,1.9503626905955627,1.8720349530285492
-0.028482790000000001,1.9503626905955627,1.8717000882854591
-0.028475159999999999,1.9500307611512375,1.8717000882854591
-0.028467530000000001,1.9503626905955627,1.8717000882854591
-0.0284599,1.9918538711362006,1.8720349530285492
-0.028452270000000002,2.0502734533374185,1.8743790062301793
-0.02844464,2.0499415238930938,1.8773927889179898
-0.028437009999999999,2.0496095944487687,1.8800717068627102
-0.028429380000000001,2.0499415238930938,1.8827506248074304
-0.028421749999999999,2.0502734533374185,1.886099272238331
-0.028414120000000001,2.0502734533374185,1.8891130549261415
-0.02840649,2.0502734533374185,1.8917919728708616
-0.028398860000000001,2.0499415238930938,1.8951406203017622
-0.02839123,2.0499415238930938,1.8981544029895725
-0.028383600000000002,2.0506053827817436,1.9008333209342929
-0.02837597,2.0499415238930938,1.9035122388790133
-0.028368339999999999,2.0502734533374185,1.9065260215668236
-0.028360710000000001,2.0499415238930938,1.909204939511544
-0.028353079999999999,2.0499415238930938,1.9118838574562644
-0.028345450000000001,2.0499415238930938,1.9145627754009849
-0.02833782,2.0502734533374185,1.917241693345705
-0.028330190000000002,2.0499415238930938,1.9199206112904255
-0.02832256,2.0496095944487687,1.9219297997489657
-0.028314929999999999,2.0499415238930938,1.9242738529505961
-0.028307300000000001,2.0502734533374185,1.9262830414091363
-0.028299669999999999,2.0499415238930938,1.9282922298676766
-0.028292040000000001,2.0502734533374185,1.9306362830693069
-0.028284409999999999,2.0502734533374185,1.9329803362709372
-0.028276780000000001,2.0502734533374185,1.9346546599863874
-0.02826915,2.0499415238930938,1.9363289837018376
-0.028261520000000002,2.0502734533374185,1.9386730369034679
-0.02825389,2.0502734533374185,1.9396776311327382
-0.028246259999999999,2.0506053827817436,1.9410170901050983
-0.028238630000000001,2.0502734533374185,1.9423565490774584
-0.028230999999999999,2.0502734533374185,1.9440308727929088
-0.028223370000000001,2.0499415238930938,1.9453703317652689
-0.02821574,2.0506053827817436,1.9463749259945389
-0.028208110000000002,2.0499415238930938,1.9477143849668992
-0.02820048,2.0502734533374185,1.9483841144530794
-0.028192850000000002,2.0502734533374185,1.9497235734254394
-0.02818522,2.0506053827817436,1.9507281676547095
-0.028177589999999999,2.0502734533374185,1.9517327618839797
-0.028169960000000001,2.0502734533374185,1.9524024913701599
-0.028162329999999999,2.0502734533374185,1.9530722208563398
-0.028154700000000001,2.0499415238930938,1.95374195034252
-0.02814707,2.0499415238930938,1.9547465445717902
-0.028139440000000002,2.0499415238930938,1.9550814093148801
-0.02813181,2.0499415238930938,1.9557511388010602
-0.028124179999999999,2.0502734533374185,1.9564208682872404
-0.028116550000000001,2.0499415238930938,1.9567557330303305
-0.028108919999999999,2.0502734533374185,1.9570905977734205
-0.028101290000000001,2.0499415238930938,1.9574254625165104
-0.028093659999999999,2.0502734533374185,1.9577603272596005
-0.028086030000000001,2.0502734533374185,1.9580951920026906
-0.0280784,2.0499415238930938,1.9587649214888707
-0.028070770000000002,2.0499415238930938,1.9590997862319608
-0.02806314,2.0506053827817436,1.9594346509750507
-0.028055509999999999,2.0502734533374185,1.9594346509750507
-0.028047880000000001,2.0506053827817436,1.9597695157181407
-0.028040249999999999,2.0499415238930938,1.9597695157181407
-0.028032620000000001,2.0499415238930938,1.9601043804612308
-0.02802499,2.0499415238930938,1.9604392452043209
-0.028017360000000002,2.0499415238930938,1.9604392452043209
-0.02800973,2.0496095944487687,1.960774109947411
-0.028002099999999999,2.0499415238930938,1.9611089746905011
-0.02799447,2.0499415238930938,1.9611089746905011
-0.027986839999999999,2.0506053827817436,1.960774109947411
-0.027979210000000001,2.0502734533374185,1.9611089746905011
-0.027971579999999999,2.0499415238930938,1.9611089746905011
-0.027963950000000001,2.0499415238930938,1.9614438394335911
-0.02795632,1.9613163622582912,1.9590997862319608
-0.027948690000000002,1.9500307611512375,1.9487189791961694
-0.02794106,1.9503626905955627,1.9380033074172878
-0.027933429999999999,1.9503626905955627,1.9296316888400367
-0.027925800000000001,1.9506946200398878,1.9225995292351459
-0.027918169999999999,1.9503626905955627,1.9165719638595249
-0.027910540000000001,1.9503626905955627,1.9112141279700843
-0.02790291,1.9503626905955627,1.9065260215668236
-0.027895280000000001,1.9503626905955627,1.9025076446497431
-0.02788765,1.9500307611512375,1.8994938619619328
-0.027880020000000002,1.9496988317069126,1.8964800792741223
-0.02787239,1.9500307611512375,1.8938011613294019
-0.027864759999999999,1.9496988317069126,1.8917919728708616
-0.027857130000000001,1.9503626905955627,1.8894479196692313
-0.027849499999999999,1.9503626905955627,1.8877735959537811
-0.027841870000000001,1.9503626905955627,1.886099272238331
-0.02783424,1.9496988317069126,1.8844249485228808
-0.027826610000000002,1.9503626905955627,1.8834203542936105
-0.02781898,1.9500307611512375,1.8820808953212504
-0.027811349999999999,1.9500307611512375,1.8810763010919802
-0.027803720000000001,1.9500307611512375,1.8800717068627102
-0.027796089999999999,1.9503626905955627,1.87940197737653
-0.027788460000000001,1.9500307611512375,1.8787322478903499
-0.027780829999999999,1.9503626905955627,1.8777276536610799
-0.027773200000000001,1.9503626905955627,1.8777276536610799
-0.02776557,1.9503626905955627,1.8770579241748997
-0.027757940000000002,1.9503626905955627,1.8767230594318096
-0.02775031,1.9506946200398878,1.8757184652025396
-0.027742679999999999,1.9503626905955627,1.8753836004594495
-0.027735050000000001,1.9500307611512375,1.8753836004594495
-0.027727419999999999,1.9506946200398878,1.8747138709732694
-0.027719790000000001,1.9503626905955627,1.8743790062301793
-0.02771216,1.9496988317069126,1.8743790062301793
-0.027704530000000002,1.9503626905955627,1.8740441414870892
-0.0276969,1.9503626905955627,1.8737092767439993
-0.027689270000000002,1.9500307611512375,1.8733744120009093
-0.02768164,1.9503626905955627,1.8733744120009093
-0.027674009999999999,1.9500307611512375,1.8730395472578192
-0.027666380000000001,1.9500307611512375,1.8727046825147291
-0.027658749999999999,1.9500307611512375,1.8727046825147291
-0.027651120000000001,1.9500307611512375,1.872369817771639
-0.02764349,1.9500307611512375,1.872369817771639
-0.027635860000000002,1.9500307611512375,1.872369817771639
-0.02762823,1.9500307611512375,1.872369817771639
